bcr_patient_barcode,age,sex,os_months,os_event
TCGA-02-0001,44,F,12.0,1.0
TCGA-02-0003,50,M,5.0,1.0
TCGA-02-0004,59,M,11.0,1.0
TCGA-02-0006,56,F,18.0,1.0
TCGA-02-0007,40,F,23.0,1.0
TCGA-02-0009,61,F,11.0,1.0
TCGA-02-0010,20,F,35.0,1.0
TCGA-02-0011,18,F,21.0,1.0
TCGA-02-0014,25,M,83.0,1.0
TCGA-02-0015,50,M,21.0,1.0
TCGA-02-0016,50,M,87.0,1.0
TCGA-02-0021,43,F,78.0,1.0
TCGA-02-0023,38,F,20.0,1.0
TCGA-02-0024,35,M,53.0,1.0
TCGA-02-0025,47,M,43.0,1.0
TCGA-02-0026,27,M,25.0,1.0
TCGA-02-0027,33,F,12.0,1.0
TCGA-02-0028,39,M,91.0,1.0
TCGA-02-0033,54,M,3.0,1.0
TCGA-02-0034,60,M,14.0,1.0
TCGA-02-0037,74,F,4.0,1.0
TCGA-02-0038,48,F,11.0,1.0
TCGA-02-0039,54,M,11.0,1.0
TCGA-02-0043,54,F,18.0,1.0
TCGA-02-0046,61,M,7.0,1.0
TCGA-02-0047,78,M,15.0,1.0
TCGA-02-0048,80,M,3.0,1.0
TCGA-02-0051,43,M,15.0,1.0
TCGA-02-0052,49,M,13.0,1.0
TCGA-02-0054,44,F,7.0,1.0
TCGA-02-0055,62,F,2.0,1.0
TCGA-02-0057,66,F,20.0,1.0
TCGA-02-0058,28,F,8.0,1.0
TCGA-02-0059,68,F,10.0,1.0
TCGA-02-0060,66,F,6.0,1.0
TCGA-02-0064,50,M,20.0,1.0
TCGA-02-0068,57,M,26.0,1.0
TCGA-02-0069,31,F,29.0,0.0
TCGA-02-0070,70,M,25.0,0.0
TCGA-02-0071,53,M,5.0,1.0
TCGA-02-0074,68,F,10.0,1.0
TCGA-02-0075,63,M,21.0,1.0
TCGA-02-0079,57,M,27.0,1.0
TCGA-02-0080,28,M,90.0,1.0
TCGA-02-0083,59,F,23.0,1.0
TCGA-02-0084,36,F,13.0,1.0
TCGA-02-0085,63,F,51.0,1.0
TCGA-02-0086,45,F,9.0,1.0
TCGA-02-0087,27,F,58.0,0.0
TCGA-02-0089,52,M,17.0,1.0
TCGA-02-0099,46,M,3.0,1.0
TCGA-02-0102,42,M,27.0,1.0
TCGA-02-0104,29,F,65.0,1.0
TCGA-02-0106,54,M,12.0,1.0
TCGA-02-0107,56,M,18.0,1.0
TCGA-02-0111,56,M,23.0,1.0
TCGA-02-0113,43,F,93.0,0.0
TCGA-02-0114,37,F,100.0,1.0
TCGA-02-0115,52,M,16.0,1.0
TCGA-02-0116,51,M,49.0,1.0
TCGA-02-0258,36,F,17.0,1.0
TCGA-02-0260,54,M,17.0,1.0
TCGA-02-0266,14,M,18.0,1.0
TCGA-02-0269,68,M,11.0,1.0
TCGA-02-0271,26,M,14.0,1.0
TCGA-02-0281,78,F,4.0,1.0
TCGA-02-0285,50,F,14.0,1.0
TCGA-02-0289,57,M,14.0,1.0
TCGA-02-0290,49,M,16.0,1.0
TCGA-02-0317,40,M,12.0,1.0
TCGA-02-0321,74,M,10.0,1.0
TCGA-02-0324,69,F,8.0,1.0
TCGA-02-0325,61,M,11.0,1.0
TCGA-02-0326,82,F,7.0,1.0
TCGA-02-0330,51,F,16.0,1.0
TCGA-02-0332,46,F,26.0,1.0
TCGA-02-0333,77,F,4.0,1.0
TCGA-02-0337,48,M,25.0,1.0
TCGA-02-0338,41,M,11.0,1.0
TCGA-02-0339,67,M,12.0,1.0
TCGA-02-0422,50,M,14.0,1.0
TCGA-02-0430,67,F,11.0,1.0
TCGA-02-0432,36,M,47.0,1.0
TCGA-02-0439,70,F,1.0,1.0
TCGA-02-0440,62,M,11.0,1.0
TCGA-02-0446,61,M,9.0,1.0
TCGA-02-0451,62,F,16.0,1.0
TCGA-02-0456,67,F,3.0,1.0
TCGA-02-2466,61,M,17.0,1.0
TCGA-02-2470,57,M,13.0,1.0
TCGA-02-2483,43,M,15.0,0.0
TCGA-02-2485,53,M,15.0,0.0
TCGA-02-2486,64,M,20.0,1.0
TCGA-06-0119,81,F,3.0,1.0
TCGA-06-0122,84,F,6.0,1.0
TCGA-06-0124,67,M,20.0,1.0
TCGA-06-0125,63,F,48.0,1.0
TCGA-06-0126,86,M,7.0,1.0
TCGA-06-0127,67,M,4.0,1.0
TCGA-06-0128,66,M,23.0,1.0
TCGA-06-0129,30,M,34.0,1.0
TCGA-06-0130,54,M,13.0,1.0
TCGA-06-0132,49,M,25.0,1.0
TCGA-06-0133,64,M,14.0,1.0
TCGA-06-0137,63,F,27.0,1.0
TCGA-06-0138,43,M,24.0,1.0
TCGA-06-0139,40,M,12.0,1.0
TCGA-06-0140,86,M,0.0,1.0
TCGA-06-0141,62,M,10.0,1.0
TCGA-06-0142,81,M,2.0,1.0
TCGA-06-0143,58,M,12.0,1.0
TCGA-06-0145,53,F,2.0,1.0
TCGA-06-0146,33,F,20.0,1.0
TCGA-06-0147,51,F,18.0,1.0
TCGA-06-0148,76,M,10.0,1.0
TCGA-06-0149,74,F,9.0,1.0
TCGA-06-0150,45,M,19.0,1.0
TCGA-06-0151,32,F,47.0,1.0
TCGA-06-0152,68,M,12.0,1.0
TCGA-06-0154,54,M,14.0,1.0
TCGA-06-0155,61,M,10.0,1.0
TCGA-06-0156,57,M,6.0,1.0
TCGA-06-0157,63,F,3.0,1.0
TCGA-06-0158,73,M,11.0,1.0
TCGA-06-0159,74,M,9.0,1.0
TCGA-06-0160,56,F,12.0,1.0
TCGA-06-0162,47,F,3.0,1.0
TCGA-06-0164,47,M,57.0,1.0
TCGA-06-0165,52,M,11.0,1.0
TCGA-06-0166,51,M,6.0,1.0
TCGA-06-0167,44,M,11.0,1.0
TCGA-06-0168,59,F,20.0,1.0
TCGA-06-0169,68,M,3.0,1.0
TCGA-06-0171,65,M,13.0,1.0
TCGA-06-0173,72,F,4.0,1.0
TCGA-06-0174,54,M,3.0,1.0
TCGA-06-0175,69,M,4.0,1.0
TCGA-06-0176,34,M,91.0,0.0
TCGA-06-0177,64,M,4.0,1.0
TCGA-06-0178,38,M,88.0,1.0
TCGA-06-0179,64,M,20.0,1.0
TCGA-06-0182,76,M,4.0,1.0
TCGA-06-0184,63,M,70.0,1.0
TCGA-06-0185,54,M,74.0,0.0
TCGA-06-0187,69,M,27.0,1.0
TCGA-06-0188,71,M,45.0,1.0
TCGA-06-0189,55,M,15.0,1.0
TCGA-06-0190,62,M,10.0,1.0
TCGA-06-0192,58,M,39.0,1.0
TCGA-06-0194,37,F,5.0,1.0
TCGA-06-0195,63,M,7.0,1.0
TCGA-06-0197,65,F,6.0,1.0
TCGA-06-0201,51,F,0.0,1.0
TCGA-06-0206,40,M,8.0,1.0
TCGA-06-0208,52,F,8.0,1.0
TCGA-06-0209,76,M,8.0,1.0
TCGA-06-0210,72,F,7.0,1.0
TCGA-06-0211,47,M,12.0,1.0
TCGA-06-0213,55,F,1.0,1.0
TCGA-06-0214,66,M,15.0,1.0
TCGA-06-0216,61,F,24.0,1.0
TCGA-06-0219,67,M,1.0,1.0
TCGA-06-0221,31,M,20.0,1.0
TCGA-06-0237,75,F,14.0,1.0
TCGA-06-0238,46,M,13.0,1.0
TCGA-06-0240,57,M,20.0,1.0
TCGA-06-0241,65,F,49.0,1.0
TCGA-06-0394,51,M,11.0,1.0
TCGA-06-0397,57,F,9.0,1.0
TCGA-06-0402,71,M,0.0,1.0
TCGA-06-0409,43,M,72.0,1.0
TCGA-06-0410,76,F,5.0,1.0
TCGA-06-0412,56,F,10.0,1.0
TCGA-06-0413,77,F,3.0,1.0
TCGA-06-0414,63,M,35.0,1.0
TCGA-06-0644,71,M,13.0,1.0
TCGA-06-0645,55,F,6.0,1.0
TCGA-06-0646,60,M,6.0,1.0
TCGA-06-0648,77,M,10.0,1.0
TCGA-06-0649,73,F,2.0,1.0
TCGA-06-0650,39,F,24.0,1.0
TCGA-06-0686,53,M,14.0,1.0
TCGA-06-0743,69,M,26.0,1.0
TCGA-06-0744,66,M,47.0,1.0
TCGA-06-0745,59,M,8.0,1.0
TCGA-06-0747,53,M,3.0,1.0
TCGA-06-0749,50,M,3.0,1.0
TCGA-06-0750,43,M,1.0,1.0
TCGA-06-0875,61,F,43.0,0.0
TCGA-06-0876,72,F,46.0,0.0
TCGA-06-0877,78,M,7.0,0.0
TCGA-06-0878,74,M,7.0,0.0
TCGA-06-0879,52,M,40.0,1.0
TCGA-06-0881,50,M,17.0,1.0
TCGA-06-0882,30,M,21.0,1.0
TCGA-06-0939,79,F,27.0,1.0
TCGA-06-1084,54,M,24.0,1.0
TCGA-06-1086,42,M,7.0,1.0
TCGA-06-1087,75,M,4.0,1.0
TCGA-06-1800,61,M,27.0,1.0
TCGA-06-1801,56,F,12.0,1.0
TCGA-06-1802,61,M,15.0,1.0
TCGA-06-1804,81,F,14.0,1.0
TCGA-06-1805,28,F,34.0,0.0
TCGA-06-1806,47,M,15.0,1.0
TCGA-06-2557,76,M,1.0,1.0
TCGA-06-2558,75,F,12.0,1.0
TCGA-06-2559,83,M,5.0,1.0
TCGA-06-2561,53,F,18.0,1.0
TCGA-06-2562,81,M,13.0,1.0
TCGA-06-2563,72,F,31.0,0.0
TCGA-06-2564,50,M,6.0,0.0
TCGA-06-2565,59,M,17.0,1.0
TCGA-06-2566,23,F,6.0,1.0
TCGA-06-2567,65,M,4.0,1.0
TCGA-06-2569,24,F,0.0,0.0
TCGA-06-2570,21,F,31.0,0.0
TCGA-06-5408,54,F,12.0,1.0
TCGA-06-5410,72,F,4.0,1.0
TCGA-06-5411,51,M,8.0,1.0
TCGA-06-5412,78,F,5.0,1.0
TCGA-06-5413,67,M,9.0,0.0
TCGA-06-5414,61,M,9.0,0.0
TCGA-06-5415,60,M,9.0,0.0
TCGA-06-5416,23,F,7.0,0.0
TCGA-06-5417,45,F,5.0,0.0
TCGA-06-5418,75,F,3.0,1.0
TCGA-06-5856,58,M,4.0,1.0
TCGA-06-5858,45,F,6.0,0.0
TCGA-06-5859,63,M,5.0,0.0
TCGA-06-6388,64,F,5.0,1.0
TCGA-06-6389,49,F,8.0,0.0
TCGA-06-6390,58,M,5.0,1.0
TCGA-06-6391,44,F,1.0,1.0
TCGA-06-6693,64,F,121.0,1.0
TCGA-06-6694,76,F,7.0,1.0
TCGA-06-6695,64,M,8.0,0.0
TCGA-06-6697,65,M,13.0,0.0
TCGA-06-6698,53,F,5.0,0.0
TCGA-06-6699,58,F,2.0,0.0
TCGA-06-6700,76,M,5.0,0.0
TCGA-06-6701,60,M,5.0,0.0
TCGA-06-A5U0,21,F,27.0,0.0
TCGA-06-A5U1,78,F,2.0,1.0
TCGA-06-A6S0,79,M,3.0,1.0
TCGA-06-A6S1,53,F,3.0,1.0
TCGA-06-A7TK,64,M,15.0,1.0
TCGA-06-A7TL,30,F,18.0,0.0
TCGA-08-0244,62,M,23.0,1.0
TCGA-08-0245,31,F,38.0,1.0
TCGA-08-0246,57,F,4.0,1.0
TCGA-08-0344,66,M,116.0,1.0
TCGA-08-0345,71,F,2.0,1.0
TCGA-08-0346,69,M,8.0,1.0
TCGA-08-0347,50,M,26.0,1.0
TCGA-08-0348,63,M,12.0,1.0
TCGA-08-0349,46,M,10.0,1.0
TCGA-08-0350,32,M,29.0,1.0
TCGA-08-0351,40,M,65.0,1.0
TCGA-08-0352,79,M,1.0,1.0
TCGA-08-0353,58,M,8.0,1.0
TCGA-08-0354,52,F,18.0,1.0
TCGA-08-0355,30,F,25.0,1.0
TCGA-08-0356,59,F,31.0,1.0
TCGA-08-0357,49,M,38.0,1.0
TCGA-08-0358,50,M,22.0,1.0
TCGA-08-0359,59,F,3.0,1.0
TCGA-08-0360,76,M,15.0,1.0
TCGA-08-0373,69,M,4.0,1.0
TCGA-08-0375,51,F,12.0,1.0
TCGA-08-0380,74,F,15.0,1.0
TCGA-08-0385,71,M,3.0,1.0
TCGA-08-0386,74,M,18.0,1.0
TCGA-08-0389,59,M,15.0,1.0
TCGA-08-0390,69,M,14.0,1.0
TCGA-08-0392,60,M,1.0,1.0
TCGA-08-0509,63,M,13.0,1.0
TCGA-08-0510,75,M,4.0,1.0
TCGA-08-0511,69,M,8.0,1.0
TCGA-08-0512,48,M,42.0,1.0
TCGA-08-0514,69,F,11.0,1.0
TCGA-08-0516,14,M,20.0,1.0
TCGA-08-0517,34,F,59.0,1.0
TCGA-08-0518,60,F,19.0,1.0
TCGA-08-0520,70,M,11.0,1.0
TCGA-08-0521,17,M,5.0,1.0
TCGA-08-0522,61,M,21.0,1.0
TCGA-08-0524,17,F,7.0,1.0
TCGA-08-0525,52,M,16.0,1.0
TCGA-08-0529,56,F,18.0,1.0
TCGA-08-0531,64,M,8.0,1.0
TCGA-12-0615,78,F,15.0,1.0
TCGA-12-0616,36,F,15.0,1.0
TCGA-12-0618,49,M,13.0,1.0
TCGA-12-0619,60,M,35.0,1.0
TCGA-12-0620,57,M,10.0,1.0
TCGA-12-0654,48,F,8.0,1.0
TCGA-12-0656,48,F,95.0,1.0
TCGA-12-0657,69,M,0.0,1.0
TCGA-12-0662,51,M,38.0,1.0
TCGA-12-0670,60,M,26.0,1.0
TCGA-12-0688,74,M,27.0,1.0
TCGA-12-0691,63,M,12.0,1.0
TCGA-12-0692,75,F,4.0,1.0
TCGA-12-0703,46,M,20.0,1.0
TCGA-12-0707,55,M,28.0,1.0
TCGA-12-0769,52,M,15.0,1.0
TCGA-12-0772,46,M,54.0,1.0
TCGA-12-0773,24,M,43.0,1.0
TCGA-12-0775,75,F,8.0,1.0
TCGA-12-0776,52,M,10.0,1.0
TCGA-12-0778,53,M,15.0,1.0
TCGA-12-0780,51,F,15.0,1.0
TCGA-12-0818,45,F,92.0,1.0
TCGA-12-0819,49,F,25.0,1.0
TCGA-12-0820,40,M,18.0,1.0
TCGA-12-0821,62,M,11.0,1.0
TCGA-12-0822,46,M,24.0,1.0
TCGA-12-0826,38,F,28.0,1.0
TCGA-12-0827,38,F,39.0,1.0
TCGA-12-0828,57,M,9.0,1.0
TCGA-12-0829,75,M,21.0,1.0
TCGA-12-1088,53,F,128.0,1.0
TCGA-12-1089,64,M,6.0,1.0
TCGA-12-1090,58,M,8.0,1.0
TCGA-12-1091,10,F,33.0,1.0
TCGA-12-1092,58,M,22.0,1.0
TCGA-12-1093,66,F,16.0,1.0
TCGA-12-1094,56,M,12.0,1.0
TCGA-12-1095,65,F,16.0,1.0
TCGA-12-1096,55,M,9.0,1.0
TCGA-12-1097,61,M,15.0,1.0
TCGA-12-1098,75,F,4.0,1.0
TCGA-12-1099,68,F,4.0,1.0
TCGA-12-1597,62,F,22.0,1.0
TCGA-12-1598,75,F,16.0,1.0
TCGA-12-1599,47,F,26.0,1.0
TCGA-12-1600,86,M,15.0,1.0
TCGA-12-1602,58,M,7.0,1.0
TCGA-12-3644,47,F,60.0,1.0
TCGA-12-3646,59,F,44.0,1.0
TCGA-12-3648,61,F,27.0,1.0
TCGA-12-3649,76,M,15.0,1.0
TCGA-12-3650,46,M,11.0,1.0
TCGA-12-3651,77,M,13.0,1.0
TCGA-12-3652,60,M,35.0,1.0
TCGA-12-3653,34,F,15.0,1.0
TCGA-12-5295,60,F,15.0,1.0
TCGA-12-5299,56,F,3.0,1.0
TCGA-12-5301,59,M,2.0,1.0
TCGA-14-0736,49,M,15.0,1.0
TCGA-14-0740,70,M,12.0,1.0
TCGA-14-0781,49,M,1.0,1.0
TCGA-14-0783,36,F,6.0,1.0
TCGA-14-0786,50,F,23.0,1.0
TCGA-14-0787,69,M,2.0,1.0
TCGA-14-0789,54,M,11.0,1.0
TCGA-14-0790,64,F,14.0,1.0
TCGA-14-0812,65,M,3.0,1.0
TCGA-14-0813,78,M,1.0,1.0
TCGA-14-0817,69,F,5.0,1.0
TCGA-14-0862,60,M,3.0,1.0
TCGA-14-0865,67,M,17.0,1.0
TCGA-14-0866,55,M,26.0,1.0
TCGA-14-0867,67,M,2.0,1.0
TCGA-14-0871,74,F,29.0,1.0
TCGA-14-1034,60,F,16.0,1.0
TCGA-14-1037,66,F,19.0,1.0
TCGA-14-1043,61,M,1.0,1.0
TCGA-14-1395,52,M,1.0,1.0
TCGA-14-1396,78,F,1.0,1.0
TCGA-14-1401,54,M,4.0,1.0
TCGA-14-1402,58,F,32.0,1.0
TCGA-14-1450,57,F,59.0,0.0
TCGA-14-1451,39,M,23.0,1.0
TCGA-14-1452,60,M,7.0,1.0
TCGA-14-1453,69,M,1.0,1.0
TCGA-14-1454,54,F,30.0,1.0
TCGA-14-1455,61,M,1.0,1.0
TCGA-14-1456,23,M,41.0,0.0
TCGA-14-1458,54,M,7.0,1.0
TCGA-14-1459,63,F,12.0,1.0
TCGA-14-1794,59,M,1.0,1.0
TCGA-14-1795,66,M,2.0,1.0
TCGA-14-1821,31,M,18.0,1.0
TCGA-14-1823,58,F,18.0,1.0
TCGA-14-1825,70,M,8.0,1.0
TCGA-14-1827,51,M,6.0,1.0
TCGA-14-1829,57,M,7.0,0.0
TCGA-14-2554,52,F,17.0,1.0
TCGA-14-2555,44,F,8.0,0.0
TCGA-14-3476,74,M,0.0,1.0
TCGA-14-3477,38,F,4.0,0.0
TCGA-14-4157,40,M,3.0,0.0
TCGA-15-0742,65,M,14.0,1.0
TCGA-15-1444,21,M,51.0,1.0
TCGA-15-1446,55,M,19.0,0.0
TCGA-15-1447,36,F,53.0,0.0
TCGA-15-1449,65,M,13.0,1.0
TCGA-16-0846,85,M,4.0,1.0
TCGA-16-0848,57,M,18.0,1.0
TCGA-16-0849,54,M,26.0,0.0
TCGA-16-0850,52,F,16.0,1.0
TCGA-16-0861,65,M,4.0,0.0
TCGA-16-1045,49,F,29.0,1.0
TCGA-16-1047,66,F,5.0,1.0
TCGA-16-1055,48,M,10.0,1.0
TCGA-16-1056,55,M,14.0,1.0
TCGA-16-1060,70,F,9.0,1.0
TCGA-16-1062,57,F,21.0,1.0
TCGA-16-1063,72,M,14.0,1.0
TCGA-16-1460,36,F,6.0,0.0
TCGA-19-0955,71,M,12.0,0.0
TCGA-19-0957,48,F,22.0,1.0
TCGA-19-0960,83,F,9.0,0.0
TCGA-19-0962,77,F,1.0,1.0
TCGA-19-0963,61,M,14.0,1.0
TCGA-19-0964,70,M,3.0,0.0
TCGA-19-1385,69,M,11.0,1.0
TCGA-19-1386,51,M,9.0,1.0
TCGA-19-1387,81,M,6.0,0.0
TCGA-19-1388,58,M,13.0,1.0
TCGA-19-1389,51,M,5.0,1.0
TCGA-19-1390,63,F,25.0,1.0
TCGA-19-1392,72,F,4.0,1.0
TCGA-19-1786,64,F,7.0,0.0
TCGA-19-1787,48,M,13.0,1.0
TCGA-19-1788,39,M,4.0,1.0
TCGA-19-1789,69,F,3.0,1.0
TCGA-19-1790,56,M,5.0,1.0
TCGA-19-1791,82,F,0.0,0.0
TCGA-19-2619,55,F,10.0,0.0
TCGA-19-2620,70,M,5.0,1.0
TCGA-19-2621,83,M,1.0,1.0
TCGA-19-2623,65,M,8.0,0.0
TCGA-19-2624,51,M,0.0,1.0
TCGA-19-2625,76,F,4.0,1.0
TCGA-19-2629,60,M,24.0,1.0
TCGA-19-2631,74,F,7.0,1.0
TCGA-19-4065,36,M,7.0,0.0
TCGA-19-4068,68,F,5.0,0.0
TCGA-19-5947,47,F,7.0,1.0
TCGA-19-5950,52,F,17.0,1.0
TCGA-19-5951,76,F,8.0,1.0
TCGA-19-5952,62,M,19.0,1.0
TCGA-19-5953,58,M,5.0,1.0
TCGA-19-5954,72,F,12.0,1.0
TCGA-19-5955,83,M,2.0,1.0
TCGA-19-5956,53,F,22.0,1.0
TCGA-19-5958,56,M,14.0,1.0
TCGA-19-5959,77,F,17.0,1.0
TCGA-19-5960,56,M,15.0,1.0
TCGA-19-A60I,39,M,18.0,0.0
TCGA-19-A6J4,68,M,4.0,1.0
TCGA-19-A6J5,40,M,29.0,0.0
TCGA-26-1438,36,M,10.0,0.0
TCGA-26-1439,63,M,14.0,1.0
TCGA-26-1440,48,M,10.0,0.0
TCGA-26-1442,43,M,31.0,0.0
TCGA-26-1443,60,F,7.0,0.0
TCGA-26-1799,68,M,9.0,1.0
TCGA-26-5132,74,M,9.0,0.0
TCGA-26-5133,59,M,15.0,0.0
TCGA-26-5134,74,M,5.0,0.0
TCGA-26-5135,72,F,9.0,1.0
TCGA-26-5136,78,F,19.0,1.0
TCGA-26-5139,65,F,2.0,0.0
TCGA-26-6173,57,M,8.0,0.0
TCGA-26-6174,65,F,2.0,0.0
TCGA-26-A7UX,47,M,19.0,0.0
TCGA-27-1830,57,M,5.0,1.0
TCGA-27-1831,66,M,17.0,1.0
TCGA-27-1832,59,F,10.0,1.0
TCGA-27-1833,67,F,24.0,1.0
TCGA-27-1834,56,M,41.0,1.0
TCGA-27-1835,53,F,21.0,1.0
TCGA-27-1836,33,F,30.0,1.0
TCGA-27-1837,36,M,14.0,1.0
TCGA-27-1838,59,F,12.0,1.0
TCGA-27-2518,52,M,25.0,1.0
TCGA-27-2519,48,M,18.0,1.0
TCGA-27-2521,34,M,17.0,1.0
TCGA-27-2523,63,M,16.0,1.0
TCGA-27-2524,56,M,8.0,1.0
TCGA-27-2526,79,F,3.0,1.0
TCGA-27-2527,81,M,14.0,1.0
TCGA-27-2528,62,M,16.0,1.0
TCGA-28-1745,76,M,11.0,0.0
TCGA-28-1746,77,F,0.0,0.0
TCGA-28-1747,44,M,3.0,1.0
TCGA-28-1749,73,M,9.0,0.0
TCGA-28-1750,40,F,8.0,0.0
TCGA-28-1751,61,F,8.0,0.0
TCGA-28-1752,42,F,8.0,0.0
TCGA-28-1753,53,M,1.0,0.0
TCGA-28-1755,52,F,2.0,1.0
TCGA-28-1756,78,M,3.0,0.0
TCGA-28-1757,71,M,0.0,0.0
TCGA-28-1760,48,M,5.0,0.0
TCGA-28-2499,59,M,3.0,0.0
TCGA-28-2502,65,M,1.0,0.0
TCGA-28-2506,63,F,7.0,0.0
TCGA-28-2509,77,F,5.0,0.0
TCGA-28-2512,37,M,11.0,1.0
TCGA-28-2513,69,F,7.0,0.0
TCGA-28-2514,45,M,5.0,0.0
TCGA-28-5204,72,M,15.0,1.0
TCGA-28-5207,71,M,11.0,1.0
TCGA-28-5208,52,M,18.0,1.0
TCGA-28-5209,66,F,15.0,0.0
TCGA-28-5211,42,M,12.0,0.0
TCGA-28-5213,72,M,31.0,0.0
TCGA-28-5214,53,M,23.0,1.0
TCGA-28-5215,62,F,11.0,1.0
TCGA-28-5216,52,M,14.0,0.0
TCGA-28-5218,63,M,5.0,1.0
TCGA-28-5219,47,F,23.0,0.0
TCGA-28-5220,67,M,13.0,1.0
TCGA-28-6450,60,M,5.0,1.0
TCGA-32-1970,59,M,15.0,1.0
TCGA-32-1973,21,M,21.0,1.0
TCGA-32-1976,65,M,0.0,1.0
TCGA-32-1977,63,F,0.0,0.0
TCGA-32-1978,57,M,16.0,1.0
TCGA-32-1979,69,F,19.0,1.0
TCGA-32-1980,72,M,1.0,1.0
TCGA-32-1982,76,F,5.0,1.0
TCGA-32-1986,68,M,13.0,1.0
TCGA-32-1987,49,F,15.0,1.0
TCGA-32-1991,60,M,17.0,1.0
TCGA-32-2491,63,M,12.0,1.0
TCGA-32-2494,58,F,21.0,1.0
TCGA-32-2495,59,F,15.0,1.0
TCGA-32-2615,62,M,16.0,1.0
TCGA-32-2616,48,F,7.0,1.0
TCGA-32-2632,80,M,9.0,1.0
TCGA-32-2634,82,M,23.0,0.0
TCGA-32-2638,67,M,25.0,1.0
TCGA-32-4208,25,M,21.0,0.0
TCGA-32-4209,40,M,20.0,1.0
TCGA-32-4210,73,M,4.0,1.0
TCGA-32-4211,56,M,13.0,1.0
TCGA-32-4213,47,F,20.0,0.0
TCGA-32-4719,73,M,11.0,1.0
TCGA-32-5222,66,M,19.0,1.0
TCGA-41-2571,89,M,1.0,1.0
TCGA-41-2572,67,M,13.0,1.0
TCGA-41-2573,59,M,9.0,0.0
TCGA-41-2575,75,M,10.0,1.0
TCGA-41-3392,88,M,1.0,1.0
TCGA-41-3393,81,F,4.0,1.0
TCGA-41-3915,48,M,12.0,1.0
TCGA-41-4097,63,F,0.0,1.0
TCGA-41-5651,59,F,15.0,1.0
TCGA-41-6646,73,F,12.0,1.0
TCGA-4W-AA9R,61,M,4.0,0.0
TCGA-4W-AA9S,69,M,1.0,0.0
TCGA-4W-AA9T,54,F,26.0,0.0
TCGA-74-6573,67,M,3.0,1.0
TCGA-74-6575,73,F,21.0,0.0
TCGA-74-6577,51,M,4.0,0.0
TCGA-74-6578,58,M,14.0,0.0
TCGA-74-6581,77,M,8.0,0.0
TCGA-74-6584,55,F,7.0,0.0
TCGA-76-4925,76,M,5.0,1.0
TCGA-76-4926,68,M,5.0,1.0
TCGA-76-4927,58,M,18.0,1.0
TCGA-76-4928,85,F,3.0,1.0
TCGA-76-4929,76,F,4.0,1.0
TCGA-76-4931,70,F,9.0,1.0
TCGA-76-4932,50,F,48.0,1.0
TCGA-76-4934,66,F,3.0,1.0
TCGA-76-4935,52,F,37.0,1.0
TCGA-76-6191,57,M,17.0,1.0
TCGA-76-6192,74,M,3.0,1.0
TCGA-76-6193,78,M,3.0,1.0
TCGA-76-6280,57,M,11.0,1.0
TCGA-76-6282,63,M,17.0,1.0
TCGA-76-6283,71,F,5.0,1.0
TCGA-76-6285,64,F,8.0,1.0
TCGA-76-6286,60,M,21.0,1.0
TCGA-76-6656,66,M,5.0,1.0
TCGA-76-6657,74,M,5.0,1.0
TCGA-76-6660,73,M,4.0,1.0
TCGA-76-6661,54,M,24.0,1.0
TCGA-76-6662,58,M,34.0,1.0
TCGA-76-6663,44,F,19.0,1.0
TCGA-76-6664,49,F,36.0,0.0
TCGA-81-5910,64,M,2.0,1.0
TCGA-81-5911,33,M,18.0,0.0
TCGA-87-5896,50,F,26.0,0.0
TCGA-OX-A56R,68,M,6.0,1.0
TCGA-RR-A6KA,72,F,6.0,1.0
TCGA-RR-A6KB,51,M,0.0,0.0
TCGA-RR-A6KC,55,M,21.0,1.0
